{
  "type": "service_account",
  "project_id": "secret-tempest-321408",
  "private_key_id": "a4e5c97c595e170ec6fbb6535478fe5ccaa46fef",
  "private_key": "-----BEGIN PRIVATE KEY-----\nMIIEvQIBADANBgkqhkiG9w0BAQEFAASCBKcwggSjAgEAAoIBAQDth6OnuzKdolBN\n9i+90IE7Mvu8JPCbamuoNBXxyoazEmOPf0HraHhn8XcHphn3aZh9DEdDM9QgaFlP\n+rANa0xdWAmg05dL2a3BSvB4ebQBqv34A4ZIPWBNmzd6dIond5jNWiU1X1abPI0g\n4J8M0IAgerOhXAukk+JNaq2vjoMVXOhtx+0nfMXjdBX/Rv7/9/RjMaUFwlKYT3b5\nVmzpMgZ4uFxXUqdKCZfSLrnTpfA5XOYROkEMyH2UWZmGYUIsMfisAFNNX2hqnxoU\nMNj0CM30+qUUGdSz5L5a6i9hqiIlkBLdYQ5IL076t0thU/7uVcJUWKDoOgR5Ff02\nt7Zhn8eLAgMBAAECggEAYITB6Qnlxu0qUYusmaZspOgSJ8Eg7h4/0dEca6x+sKxT\nvX8aA7TnXGFfm0GRApqrhoCjQnkAhQyx4hB9Um6b0MBR5UKlk4JIGye+8E2P6i+X\n1JxmB9u80rw0PnO1odT0x9kODpKHiDwCIu5zYsskjU4eyP40kvMuvYOQQSqZNGfM\neK8pYOdbSBTGXTpikG/08L1KNNgt/YNTNUU4MTGCK0o/I0GDg/XDfd5bm71cr4HF\n/dZ+fn2E4+vLdVDqffOGLybHA6RS0Uerv+2J7XoqnBDgt58NA6xOt+WzymzaPBIH\nAB4yiqruioPwp2LBdJRCS3cRpDX69iPQGOwlGorMeQKBgQD3gKGxYiRPvloDmdoa\n16TD7cWzPr6wqlT6LoyseHJZHdj8x5l8inTIt9Bxm/zImQ6j/iw8cB2jd4vtZzO9\nn9ezC5DS2gMyZvDlRK0EDJpqbtVZ3ttn5H/lUYFhtS12WKOsVZmm2l38b4o91tIl\nx+TIf7vkCgbWcKdpdS/1a7liWQKBgQD1r1r/tAQK9wfjqszdcJEVgbM5w2pKsH7I\n5wbvK5S8r1Vg+rSRwJfARNDsL6JYPFv9hxCmF4lLReDNr0TSVVs1PBrKQqNZDYso\nKK2Mf5wH15yKcUs+Iv2ZmmiNOgwWIsZjzvnaCXK83Ua8v/xEWf50/ZgM5gw8WbPm\nOVXSyT+UgwKBgESW3zh7TDjVNbjdwDXEISMzF6DO+KWY7qfOkqmRT48m2GVlI0IC\nVM7zMc7qPamR0R7dZ4DwSSZuENcfzJT2YR57TA1C4bPsF0JSP+hpXbm1MWcQfZlT\nF6aDaemb/hdYBTPTHRvCVF2Kw7LTf7V8qghubbGKnc57tclh8oJ+8gcxAoGBAN3S\n6fKdclkEGddxS29UR2qHpG6vBbVSDecO0K/5RV3nYMsjEQ3YOiua9peJmqbYOKZ7\n4IhWD9wqx4JukVDnSGaUUgv0hs/M7qvfrnKAdTyPbAODr0/2/8pEI8n/cxI5a66K\nHgTDKxljII8jOH3uU1UF8tcSjlGfHFLtyZN7qTBJAoGATqrAKoExE7Sva5CTGRcM\ncTZidRQ3jFgcnfVGaqkU2ZDiCr7dk0oL1kkyNfG9NpDCDj/jm36fHMt9c3STem3a\nrC2f1HlfHVcYaOeoU2JyGtt66bNkMZHBE8IC8XCcYdwhyT+wDOA0an57pGvr2od7\nL3TUnfYIOkl1Hk+e+TocY18=\n-----END PRIVATE KEY-----\n",
  "client_email": "googletest@secret-tempest-321408.iam.gserviceaccount.com",
  "client_id": "115875912090893487684",
  "auth_uri": "https://accounts.google.com/o/oauth2/auth",
  "token_uri": "https://oauth2.googleapis.com/token",
  "auth_provider_x509_cert_url": "https://www.googleapis.com/oauth2/v1/certs",
  "client_x509_cert_url": "https://www.googleapis.com/robot/v1/metadata/x509/googletest%40secret-tempest-321408.iam.gserviceaccount.com"
}
